{ "frames": [
   {
    "filename": "greenblock0",
    "frame": { "x": 0, "y": 0, "w": 20, "h": 20 },
    "rotated": false,
    "trimmed": true,
    "spriteSourceSize": { "x": 30, "y": 110, "w": 20, "h": 20 },
    "sourceSize": { "w": 320, "h": 320 },
    "duration": 100
   },
   {
    "filename": "greenblock1",
    "frame": { "x": 20, "y": 0, "w": 20, "h": 20 },
    "rotated": false,
    "trimmed": true,
    "spriteSourceSize": { "x": 30, "y": 110, "w": 20, "h": 20 },
    "sourceSize": { "w": 320, "h": 320 },
    "duration": 100
   },
   {
    "filename": "blueblock0",
    "frame": { "x": 40, "y": 0, "w": 20, "h": 20 },
    "rotated": false,
    "trimmed": true,
    "spriteSourceSize": { "x": 30, "y": 110, "w": 20, "h": 20 },
    "sourceSize": { "w": 320, "h": 320 },
    "duration": 100
   },
   {
    "filename": "blueblock1",
    "frame": { "x": 60, "y": 0, "w": 20, "h": 20 },
    "rotated": false,
    "trimmed": true,
    "spriteSourceSize": { "x": 30, "y": 110, "w": 20, "h": 20 },
    "sourceSize": { "w": 320, "h": 320 },
    "duration": 100
   },
   {
    "filename": "redblock0",
    "frame": { "x": 80, "y": 0, "w": 20, "h": 20 },
    "rotated": false,
    "trimmed": true,
    "spriteSourceSize": { "x": 30, "y": 110, "w": 20, "h": 20 },
    "sourceSize": { "w": 320, "h": 320 },
    "duration": 100
   },
   {
    "filename": "redblock1",
    "frame": { "x": 100, "y": 0, "w": 20, "h": 20 },
    "rotated": false,
    "trimmed": true,
    "spriteSourceSize": { "x": 30, "y": 110, "w": 20, "h": 20 },
    "sourceSize": { "w": 320, "h": 320 },
    "duration": 100
   },
   {
    "filename": "tractorbeam0",
    "frame": { "x": 120, "y": 0, "w": 22, "h": 22 },
    "rotated": false,
    "trimmed": true,
    "spriteSourceSize": { "x": 29, "y": 109, "w": 22, "h": 22 },
    "sourceSize": { "w": 320, "h": 320 },
    "duration": 100
   },
   {
    "filename": "tractorbeam1",
    "frame": { "x": 142, "y": 0, "w": 22, "h": 22 },
    "rotated": false,
    "trimmed": true,
    "spriteSourceSize": { "x": 29, "y": 109, "w": 22, "h": 22 },
    "sourceSize": { "w": 320, "h": 320 },
    "duration": 100
   },
   {
    "filename": "ship0",
    "frame": { "x": 164, "y": 0, "w": 36, "h": 36 },
    "rotated": false,
    "trimmed": true,
    "spriteSourceSize": { "x": 30, "y": 110, "w": 36, "h": 36 },
    "sourceSize": { "w": 320, "h": 320 },
    "duration": 100
   },
   {
    "filename": "ship1",
    "frame": { "x": 200, "y": 0, "w": 36, "h": 36 },
    "rotated": false,
    "trimmed": true,
    "spriteSourceSize": { "x": 30, "y": 110, "w": 36, "h": 36 },
    "sourceSize": { "w": 320, "h": 320 },
    "duration": 100
   },
   {
    "filename": "ship2",
    "frame": { "x": 236, "y": 0, "w": 36, "h": 36 },
    "rotated": false,
    "trimmed": true,
    "spriteSourceSize": { "x": 30, "y": 110, "w": 36, "h": 36 },
    "sourceSize": { "w": 320, "h": 320 },
    "duration": 100
   },
   {
    "filename": "box0",
    "frame": { "x": 272, "y": 0, "w": 10, "h": 10 },
    "rotated": false,
    "trimmed": true,
    "spriteSourceSize": { "x": 14, "y": 94, "w": 10, "h": 10 },
    "sourceSize": { "w": 320, "h": 320 },
    "duration": 100
   },
   {
    "filename": "white0",
    "frame": { "x": 282, "y": 0, "w": 5, "h": 5 },
    "rotated": false,
    "trimmed": true,
    "spriteSourceSize": { "x": 14, "y": 94, "w": 5, "h": 5 },
    "sourceSize": { "w": 320, "h": 320 },
    "duration": 100
   },
   {
    "filename": "signal0",
    "frame": { "x": 287, "y": 0, "w": 20, "h": 20 },
    "rotated": false,
    "trimmed": true,
    "spriteSourceSize": { "x": 14, "y": 94, "w": 20, "h": 20 },
    "sourceSize": { "w": 320, "h": 320 },
    "duration": 100
   },
   {
    "filename": "signal1",
    "frame": { "x": 307, "y": 0, "w": 20, "h": 20 },
    "rotated": false,
    "trimmed": true,
    "spriteSourceSize": { "x": 14, "y": 94, "w": 20, "h": 20 },
    "sourceSize": { "w": 320, "h": 320 },
    "duration": 100
   },
   {
    "filename": "signal2",
    "frame": { "x": 327, "y": 0, "w": 20, "h": 20 },
    "rotated": false,
    "trimmed": true,
    "spriteSourceSize": { "x": 14, "y": 94, "w": 20, "h": 20 },
    "sourceSize": { "w": 320, "h": 320 },
    "duration": 100
   },
   {
    "filename": "signal3",
    "frame": { "x": 347, "y": 0, "w": 20, "h": 20 },
    "rotated": false,
    "trimmed": true,
    "spriteSourceSize": { "x": 14, "y": 94, "w": 20, "h": 20 },
    "sourceSize": { "w": 320, "h": 320 },
    "duration": 100
   },
   {
    "filename": "battery0",
    "frame": { "x": 367, "y": 0, "w": 20, "h": 20 },
    "rotated": false,
    "trimmed": true,
    "spriteSourceSize": { "x": 30, "y": 94, "w": 20, "h": 20 },
    "sourceSize": { "w": 320, "h": 320 },
    "duration": 100
   },
   {
    "filename": "18",
    "frame": { "x": 387, "y": 0, "w": 1, "h": 1 },
    "rotated": false,
    "trimmed": true,
    "spriteSourceSize": { "x": 0, "y": 0, "w": 1, "h": 1 },
    "sourceSize": { "w": 320, "h": 320 },
    "duration": 100
   },
   {
    "filename": "app:material0",
    "frame": { "x": 388, "y": 0, "w": 36, "h": 36 },
    "rotated": false,
    "trimmed": true,
    "spriteSourceSize": { "x": 14, "y": 94, "w": 36, "h": 36 },
    "sourceSize": { "w": 320, "h": 320 },
    "duration": 100
   },
   {
    "filename": "app:metrics0",
    "frame": { "x": 424, "y": 0, "w": 36, "h": 36 },
    "rotated": false,
    "trimmed": true,
    "spriteSourceSize": { "x": 14, "y": 94, "w": 36, "h": 36 },
    "sourceSize": { "w": 320, "h": 320 },
    "duration": 100
   },
   {
    "filename": "app:mining0",
    "frame": { "x": 460, "y": 0, "w": 36, "h": 36 },
    "rotated": false,
    "trimmed": true,
    "spriteSourceSize": { "x": 14, "y": 94, "w": 36, "h": 36 },
    "sourceSize": { "w": 320, "h": 320 },
    "duration": 100
   },
   {
    "filename": "app:flight0",
    "frame": { "x": 496, "y": 0, "w": 36, "h": 36 },
    "rotated": false,
    "trimmed": true,
    "spriteSourceSize": { "x": 14, "y": 94, "w": 36, "h": 36 },
    "sourceSize": { "w": 320, "h": 320 },
    "duration": 100
   },
   {
    "filename": "app:help0",
    "frame": { "x": 532, "y": 0, "w": 36, "h": 36 },
    "rotated": false,
    "trimmed": true,
    "spriteSourceSize": { "x": 14, "y": 94, "w": 36, "h": 36 },
    "sourceSize": { "w": 320, "h": 320 },
    "duration": 100
   },
   {
    "filename": "app:uos0",
    "frame": { "x": 568, "y": 0, "w": 36, "h": 36 },
    "rotated": false,
    "trimmed": true,
    "spriteSourceSize": { "x": 14, "y": 94, "w": 36, "h": 36 },
    "sourceSize": { "w": 320, "h": 320 },
    "duration": 100
   },
   {
    "filename": "25",
    "frame": { "x": 604, "y": 0, "w": 1, "h": 1 },
    "rotated": false,
    "trimmed": true,
    "spriteSourceSize": { "x": 0, "y": 0, "w": 1, "h": 1 },
    "sourceSize": { "w": 320, "h": 320 },
    "duration": 100
   },
   {
    "filename": "btn:back0",
    "frame": { "x": 605, "y": 0, "w": 36, "h": 36 },
    "rotated": false,
    "trimmed": true,
    "spriteSourceSize": { "x": 14, "y": 94, "w": 36, "h": 36 },
    "sourceSize": { "w": 320, "h": 320 },
    "duration": 100
   },
   {
    "filename": "btn:home0",
    "frame": { "x": 641, "y": 0, "w": 36, "h": 36 },
    "rotated": false,
    "trimmed": true,
    "spriteSourceSize": { "x": 14, "y": 94, "w": 36, "h": 36 },
    "sourceSize": { "w": 320, "h": 320 },
    "duration": 100
   },
   {
    "filename": "btn:reboot0",
    "frame": { "x": 677, "y": 0, "w": 36, "h": 36 },
    "rotated": false,
    "trimmed": true,
    "spriteSourceSize": { "x": 14, "y": 94, "w": 36, "h": 36 },
    "sourceSize": { "w": 320, "h": 320 },
    "duration": 100
   },
   {
    "filename": "29",
    "frame": { "x": 713, "y": 0, "w": 1, "h": 1 },
    "rotated": false,
    "trimmed": true,
    "spriteSourceSize": { "x": 0, "y": 0, "w": 1, "h": 1 },
    "sourceSize": { "w": 320, "h": 320 },
    "duration": 100
   },
   {
    "filename": "btn:generic0",
    "frame": { "x": 714, "y": 0, "w": 196, "h": 44 },
    "rotated": false,
    "trimmed": true,
    "spriteSourceSize": { "x": 14, "y": 94, "w": 196, "h": 44 },
    "sourceSize": { "w": 320, "h": 320 },
    "duration": 100
   },
   {
    "filename": "homeplanet0",
    "frame": { "x": 910, "y": 0, "w": 36, "h": 36 },
    "rotated": false,
    "trimmed": true,
    "spriteSourceSize": { "x": 14, "y": 94, "w": 36, "h": 36 },
    "sourceSize": { "w": 320, "h": 320 },
    "duration": 100
   },
   {
    "filename": "mars0",
    "frame": { "x": 946, "y": 0, "w": 36, "h": 36 },
    "rotated": false,
    "trimmed": true,
    "spriteSourceSize": { "x": 14, "y": 94, "w": 36, "h": 36 },
    "sourceSize": { "w": 320, "h": 320 },
    "duration": 100
   },
   {
    "filename": "33",
    "frame": { "x": 982, "y": 0, "w": 1, "h": 1 },
    "rotated": false,
    "trimmed": true,
    "spriteSourceSize": { "x": 0, "y": 0, "w": 1, "h": 1 },
    "sourceSize": { "w": 320, "h": 320 },
    "duration": 100
   },
   {
    "filename": "bootlogo0",
    "frame": { "x": 983, "y": 0, "w": 55, "h": 40 },
    "rotated": false,
    "trimmed": true,
    "spriteSourceSize": { "x": 69, "y": 125, "w": 55, "h": 40 },
    "sourceSize": { "w": 320, "h": 320 },
    "duration": 100
   },
   {
    "filename": "storagebg0",
    "frame": { "x": 1038, "y": 0, "w": 176, "h": 176 },
    "rotated": false,
    "trimmed": true,
    "spriteSourceSize": { "x": 21, "y": 12, "w": 176, "h": 176 },
    "sourceSize": { "w": 320, "h": 320 },
    "duration": 100
   },
   {
    "filename": "36",
    "frame": { "x": 1214, "y": 0, "w": 1, "h": 1 },
    "rotated": false,
    "trimmed": true,
    "spriteSourceSize": { "x": 0, "y": 0, "w": 1, "h": 1 },
    "sourceSize": { "w": 320, "h": 320 },
    "duration": 100
   },
   {
    "filename": "37",
    "frame": { "x": 1215, "y": 0, "w": 1, "h": 1 },
    "rotated": false,
    "trimmed": true,
    "spriteSourceSize": { "x": 0, "y": 0, "w": 1, "h": 1 },
    "sourceSize": { "w": 320, "h": 320 },
    "duration": 100
   }
 ],
 "meta": {
  "app": "http://www.aseprite.org/",
  "version": "1.2.29",
  "image": "sprites.png",
  "format": "RGBA8888",
  "size": { "w": 1216, "h": 176 },
  "scale": "1",
  "frameTags": [
   { "name": "greenblock", "from": 0, "to": 1, "direction": "forward" },
   { "name": "blueblock", "from": 2, "to": 3, "direction": "forward" },
   { "name": "redblock", "from": 4, "to": 5, "direction": "forward" },
   { "name": "tractorbeam", "from": 6, "to": 7, "direction": "forward" },
   { "name": "ship", "from": 8, "to": 10, "direction": "forward" },
   { "name": "box", "from": 11, "to": 11, "direction": "forward" },
   { "name": "white", "from": 12, "to": 12, "direction": "forward" },
   { "name": "signal", "from": 13, "to": 16, "direction": "forward" },
   { "name": "battery", "from": 17, "to": 17, "direction": "forward" },
   { "name": "app:material", "from": 19, "to": 19, "direction": "forward" },
   { "name": "app:metrics", "from": 20, "to": 20, "direction": "forward" },
   { "name": "app:mining", "from": 21, "to": 21, "direction": "forward" },
   { "name": "app:flight", "from": 22, "to": 22, "direction": "forward" },
   { "name": "app:help", "from": 23, "to": 23, "direction": "forward" },
   { "name": "app:uos", "from": 24, "to": 24, "direction": "forward" },
   { "name": "btn:back", "from": 26, "to": 26, "direction": "forward" },
   { "name": "btn:home", "from": 27, "to": 27, "direction": "forward" },
   { "name": "btn:reboot", "from": 28, "to": 28, "direction": "forward" },
   { "name": "btn:generic", "from": 30, "to": 30, "direction": "forward" },
   { "name": "homeplanet", "from": 31, "to": 31, "direction": "forward" },
   { "name": "mars", "from": 32, "to": 32, "direction": "forward" },
   { "name": "bootlogo", "from": 34, "to": 34, "direction": "forward" },
   { "name": "storagebg", "from": 35, "to": 35, "direction": "forward" }
  ],
  "layers": [
   { "name": "Markers", "opacity": 255, "blendMode": "normal" },
   { "name": "Layer 3", "opacity": 255, "blendMode": "normal" },
   { "name": "Layer 4", "opacity": 255, "blendMode": "normal" },
   { "name": "Layer 5", "opacity": 255, "blendMode": "normal" },
   { "name": "Layer 6", "opacity": 255, "blendMode": "normal" }
  ],
  "slices": [
  ]
 }
}
