info face="Montserrat" size=10 bold=0 italic=0 smooth=1 spacing=0,0
common lineHeight=16 base=13 scaleW=125 scaleH=112 pages=1
page id=0 file="montserrat_bold_10.PNG"
char id=32 x=1 y=14 width=0 height=0 xoffset=0 yoffset=13 xadvance=4 page=0
char id=33 x=2 y=4 width=4 height=10 xoffset=0 yoffset=3 xadvance=4 page=0
char id=34 x=7 y=4 width=6 height=4 xoffset=0 yoffset=3 xadvance=6 page=0
char id=35 x=14 y=4 width=10 height=10 xoffset=0 yoffset=3 xadvance=10 page=0
char id=36 x=25 y=2 width=9 height=14 xoffset=0 yoffset=1 xadvance=9 page=0
char id=37 x=35 y=4 width=12 height=10 xoffset=0 yoffset=3 xadvance=12 page=0
char id=38 x=48 y=4 width=10 height=10 xoffset=0 yoffset=3 xadvance=10 page=0
char id=39 x=59 y=4 width=3 height=4 xoffset=0 yoffset=3 xadvance=3 page=0
char id=40 x=63 y=3 width=5 height=14 xoffset=0 yoffset=2 xadvance=5 page=0
char id=41 x=69 y=3 width=4 height=14 xoffset=0 yoffset=2 xadvance=5 page=0
char id=42 x=74 y=3 width=6 height=6 xoffset=0 yoffset=2 xadvance=6 page=0
char id=43 x=81 y=5 width=8 height=7 xoffset=0 yoffset=4 xadvance=8 page=0
char id=44 x=90 y=11 width=4 height=5 xoffset=0 yoffset=10 xadvance=3 page=0
char id=45 x=95 y=9 width=5 height=2 xoffset=0 yoffset=8 xadvance=5 page=0
char id=46 x=101 y=11 width=4 height=3 xoffset=0 yoffset=10 xadvance=3 page=0
char id=47 x=106 y=1 width=7 height=14 xoffset=-1 yoffset=0 xadvance=5 page=0
char id=48 x=114 y=4 width=9 height=10 xoffset=0 yoffset=3 xadvance=9 page=0
char id=49 x=1 y=18 width=5 height=10 xoffset=0 yoffset=3 xadvance=5 page=0
char id=50 x=7 y=18 width=8 height=10 xoffset=0 yoffset=3 xadvance=8 page=0
char id=51 x=16 y=18 width=9 height=10 xoffset=-1 yoffset=3 xadvance=8 page=0
char id=52 x=26 y=18 width=10 height=10 xoffset=0 yoffset=3 xadvance=9 page=0
char id=53 x=37 y=18 width=8 height=10 xoffset=0 yoffset=3 xadvance=8 page=0
char id=54 x=46 y=18 width=9 height=10 xoffset=0 yoffset=3 xadvance=8 page=0
char id=55 x=56 y=18 width=8 height=10 xoffset=0 yoffset=3 xadvance=8 page=0
char id=56 x=65 y=18 width=9 height=10 xoffset=0 yoffset=3 xadvance=9 page=0
char id=57 x=75 y=18 width=8 height=10 xoffset=0 yoffset=3 xadvance=8 page=0
char id=58 x=84 y=20 width=4 height=8 xoffset=0 yoffset=5 xadvance=3 page=0
char id=59 x=89 y=20 width=4 height=10 xoffset=0 yoffset=5 xadvance=3 page=0
char id=60 x=94 y=20 width=8 height=7 xoffset=0 yoffset=5 xadvance=8 page=0
char id=61 x=103 y=20 width=8 height=6 xoffset=0 yoffset=5 xadvance=8 page=0
char id=62 x=112 y=20 width=8 height=7 xoffset=0 yoffset=5 xadvance=8 page=0
char id=63 x=1 y=31 width=9 height=10 xoffset=-1 yoffset=3 xadvance=8 page=0
char id=64 x=11 y=31 width=14 height=13 xoffset=0 yoffset=3 xadvance=14 page=0
char id=65 x=26 y=31 width=12 height=10 xoffset=-1 yoffset=3 xadvance=10 page=0
char id=66 x=39 y=31 width=9 height=10 xoffset=1 yoffset=3 xadvance=10 page=0
char id=67 x=49 y=31 width=10 height=10 xoffset=0 yoffset=3 xadvance=10 page=0
char id=68 x=60 y=31 width=10 height=10 xoffset=1 yoffset=3 xadvance=11 page=0
char id=69 x=71 y=31 width=8 height=10 xoffset=1 yoffset=3 xadvance=9 page=0
char id=70 x=80 y=31 width=8 height=10 xoffset=1 yoffset=3 xadvance=9 page=0
char id=71 x=89 y=31 width=10 height=10 xoffset=0 yoffset=3 xadvance=10 page=0
char id=72 x=100 y=31 width=9 height=10 xoffset=1 yoffset=3 xadvance=11 page=0
char id=73 x=110 y=31 width=3 height=10 xoffset=1 yoffset=3 xadvance=4 page=0
char id=74 x=114 y=31 width=8 height=10 xoffset=-1 yoffset=3 xadvance=7 page=0
char id=75 x=1 y=45 width=10 height=10 xoffset=1 yoffset=3 xadvance=10 page=0
char id=76 x=12 y=45 width=7 height=10 xoffset=1 yoffset=3 xadvance=8 page=0
char id=77 x=20 y=45 width=11 height=10 xoffset=1 yoffset=3 xadvance=13 page=0
char id=78 x=32 y=45 width=9 height=10 xoffset=1 yoffset=3 xadvance=11 page=0
char id=79 x=42 y=45 width=11 height=10 xoffset=0 yoffset=3 xadvance=11 page=0
char id=80 x=54 y=45 width=9 height=10 xoffset=1 yoffset=3 xadvance=10 page=0
char id=81 x=64 y=45 width=12 height=13 xoffset=0 yoffset=3 xadvance=11 page=0
char id=82 x=77 y=45 width=9 height=10 xoffset=1 yoffset=3 xadvance=10 page=0
char id=83 x=87 y=45 width=9 height=10 xoffset=0 yoffset=3 xadvance=9 page=0
char id=84 x=97 y=45 width=9 height=10 xoffset=0 yoffset=3 xadvance=8 page=0
char id=85 x=107 y=45 width=9 height=10 xoffset=1 yoffset=3 xadvance=11 page=0
char id=86 x=1 y=62 width=12 height=10 xoffset=-1 yoffset=3 xadvance=10 page=0
char id=87 x=14 y=62 width=16 height=10 xoffset=0 yoffset=3 xadvance=16 page=0
char id=88 x=31 y=62 width=10 height=10 xoffset=0 yoffset=3 xadvance=10 page=0
char id=89 x=42 y=62 width=11 height=10 xoffset=-1 yoffset=3 xadvance=9 page=0
char id=90 x=54 y=62 width=9 height=10 xoffset=0 yoffset=3 xadvance=9 page=0
char id=91 x=64 y=61 width=4 height=14 xoffset=1 yoffset=2 xadvance=5 page=0
char id=92 x=69 y=59 width=7 height=14 xoffset=-1 yoffset=0 xadvance=5 page=0
char id=93 x=77 y=61 width=4 height=14 xoffset=0 yoffset=2 xadvance=5 page=0
char id=94 x=82 y=64 width=8 height=6 xoffset=0 yoffset=5 xadvance=8 page=0
char id=95 x=91 y=71 width=7 height=2 xoffset=0 yoffset=12 xadvance=7 page=0
char id=96 x=99 y=61 width=5 height=2 xoffset=1 yoffset=2 xadvance=8 page=0
char id=97 x=105 y=64 width=8 height=8 xoffset=0 yoffset=5 xadvance=8 page=0
char id=98 x=114 y=61 width=9 height=11 xoffset=0 yoffset=2 xadvance=9 page=0
char id=99 x=1 y=80 width=8 height=8 xoffset=0 yoffset=5 xadvance=8 page=0
char id=100 x=10 y=77 width=9 height=11 xoffset=0 yoffset=2 xadvance=9 page=0
char id=101 x=20 y=80 width=8 height=8 xoffset=0 yoffset=5 xadvance=8 page=0
char id=102 x=29 y=77 width=6 height=11 xoffset=0 yoffset=2 xadvance=5 page=0
char id=103 x=36 y=80 width=9 height=11 xoffset=0 yoffset=5 xadvance=9 page=0
char id=104 x=46 y=77 width=9 height=11 xoffset=0 yoffset=2 xadvance=9 page=0
char id=105 x=56 y=76 width=4 height=12 xoffset=0 yoffset=1 xadvance=4 page=0
char id=106 x=61 y=76 width=6 height=15 xoffset=-2 yoffset=1 xadvance=4 page=0
char id=107 x=68 y=77 width=9 height=11 xoffset=0 yoffset=2 xadvance=9 page=0
char id=108 x=78 y=77 width=4 height=11 xoffset=0 yoffset=2 xadvance=4 page=0
char id=109 x=83 y=80 width=14 height=8 xoffset=0 yoffset=5 xadvance=14 page=0
char id=110 x=98 y=80 width=9 height=8 xoffset=0 yoffset=5 xadvance=9 page=0
char id=111 x=108 y=80 width=9 height=8 xoffset=0 yoffset=5 xadvance=9 page=0
char id=112 x=1 y=95 width=9 height=11 xoffset=0 yoffset=5 xadvance=9 page=0
char id=113 x=11 y=95 width=9 height=11 xoffset=0 yoffset=5 xadvance=9 page=0
char id=114 x=21 y=95 width=6 height=8 xoffset=0 yoffset=5 xadvance=6 page=0
char id=115 x=28 y=95 width=7 height=8 xoffset=0 yoffset=5 xadvance=7 page=0
char id=116 x=36 y=93 width=6 height=10 xoffset=0 yoffset=3 xadvance=6 page=0
char id=117 x=43 y=95 width=9 height=8 xoffset=0 yoffset=5 xadvance=9 page=0
char id=118 x=53 y=95 width=10 height=8 xoffset=-1 yoffset=5 xadvance=8 page=0
char id=119 x=64 y=95 width=13 height=8 xoffset=0 yoffset=5 xadvance=12 page=0
char id=120 x=78 y=95 width=8 height=8 xoffset=0 yoffset=5 xadvance=8 page=0
char id=121 x=87 y=95 width=10 height=11 xoffset=-1 yoffset=5 xadvance=8 page=0
char id=122 x=98 y=95 width=7 height=8 xoffset=0 yoffset=5 xadvance=7 page=0
char id=123 x=106 y=92 width=6 height=14 xoffset=0 yoffset=2 xadvance=5 page=0
char id=124 x=113 y=92 width=3 height=14 xoffset=1 yoffset=2 xadvance=4 page=0
char id=125 x=117 y=92 width=5 height=14 xoffset=0 yoffset=2 xadvance=5 page=0
char id=126 x=1 y=107 width=8 height=3 xoffset=0 yoffset=6 xadvance=8 page=0
