info face="Montserrat" size=8 bold=0 italic=0 smooth=1 spacing=0,0
common lineHeight=13 base=11 scaleW=94 scaleH=104 pages=1
page id=0 file="montserrat_bold_8.PNG"
char id=32 x=1 y=10 width=0 height=0 xoffset=0 yoffset=11 xadvance=3 page=0
char id=33 x=2 y=2 width=3 height=8 xoffset=0 yoffset=3 xadvance=3 page=0
char id=34 x=6 y=2 width=5 height=3 xoffset=0 yoffset=3 xadvance=5 page=0
char id=35 x=12 y=2 width=8 height=8 xoffset=0 yoffset=3 xadvance=8 page=0
char id=36 x=21 y=1 width=7 height=10 xoffset=0 yoffset=2 xadvance=7 page=0
char id=37 x=29 y=2 width=10 height=8 xoffset=0 yoffset=3 xadvance=9 page=0
char id=38 x=40 y=2 width=8 height=8 xoffset=0 yoffset=3 xadvance=8 page=0
char id=39 x=49 y=2 width=2 height=3 xoffset=0 yoffset=3 xadvance=2 page=0
char id=40 x=52 y=2 width=4 height=10 xoffset=0 yoffset=3 xadvance=4 page=0
char id=41 x=57 y=2 width=4 height=10 xoffset=0 yoffset=3 xadvance=4 page=0
char id=42 x=62 y=2 width=5 height=4 xoffset=0 yoffset=3 xadvance=5 page=0
char id=43 x=68 y=4 width=6 height=5 xoffset=0 yoffset=5 xadvance=6 page=0
char id=44 x=75 y=8 width=3 height=4 xoffset=0 yoffset=9 xadvance=3 page=0
char id=45 x=79 y=5 width=4 height=3 xoffset=0 yoffset=6 xadvance=4 page=0
char id=46 x=84 y=7 width=3 height=3 xoffset=0 yoffset=8 xadvance=3 page=0
char id=47 x=1 y=13 width=6 height=11 xoffset=-1 yoffset=1 xadvance=4 page=0
char id=48 x=8 y=15 width=7 height=8 xoffset=0 yoffset=3 xadvance=7 page=0
char id=49 x=16 y=15 width=4 height=8 xoffset=0 yoffset=3 xadvance=4 page=0
char id=50 x=21 y=15 width=6 height=8 xoffset=0 yoffset=3 xadvance=6 page=0
char id=51 x=28 y=15 width=7 height=8 xoffset=-1 yoffset=3 xadvance=6 page=0
char id=52 x=36 y=15 width=8 height=8 xoffset=0 yoffset=3 xadvance=7 page=0
char id=53 x=45 y=15 width=7 height=8 xoffset=0 yoffset=3 xadvance=6 page=0
char id=54 x=53 y=15 width=7 height=8 xoffset=0 yoffset=3 xadvance=7 page=0
char id=55 x=61 y=15 width=7 height=8 xoffset=0 yoffset=3 xadvance=7 page=0
char id=56 x=69 y=15 width=7 height=8 xoffset=0 yoffset=3 xadvance=7 page=0
char id=57 x=77 y=15 width=7 height=8 xoffset=0 yoffset=3 xadvance=7 page=0
char id=58 x=85 y=16 width=3 height=7 xoffset=0 yoffset=4 xadvance=3 page=0
char id=59 x=89 y=16 width=3 height=9 xoffset=0 yoffset=4 xadvance=3 page=0
char id=60 x=1 y=27 width=6 height=6 xoffset=0 yoffset=4 xadvance=6 page=0
char id=61 x=8 y=28 width=6 height=5 xoffset=0 yoffset=5 xadvance=6 page=0
char id=62 x=15 y=27 width=6 height=6 xoffset=0 yoffset=4 xadvance=6 page=0
char id=63 x=22 y=26 width=7 height=8 xoffset=-1 yoffset=3 xadvance=6 page=0
char id=64 x=30 y=26 width=11 height=10 xoffset=0 yoffset=3 xadvance=11 page=0
char id=65 x=42 y=26 width=10 height=8 xoffset=-1 yoffset=3 xadvance=8 page=0
char id=66 x=53 y=26 width=8 height=8 xoffset=0 yoffset=3 xadvance=8 page=0
char id=67 x=62 y=26 width=8 height=8 xoffset=0 yoffset=3 xadvance=8 page=0
char id=68 x=71 y=26 width=9 height=8 xoffset=0 yoffset=3 xadvance=9 page=0
char id=69 x=81 y=26 width=7 height=8 xoffset=0 yoffset=3 xadvance=7 page=0
char id=70 x=1 y=37 width=7 height=8 xoffset=0 yoffset=3 xadvance=7 page=0
char id=71 x=9 y=37 width=8 height=8 xoffset=0 yoffset=3 xadvance=8 page=0
char id=72 x=18 y=37 width=8 height=8 xoffset=0 yoffset=3 xadvance=9 page=0
char id=73 x=27 y=37 width=3 height=8 xoffset=0 yoffset=3 xadvance=4 page=0
char id=74 x=31 y=37 width=6 height=8 xoffset=-1 yoffset=3 xadvance=6 page=0
char id=75 x=38 y=37 width=9 height=8 xoffset=0 yoffset=3 xadvance=8 page=0
char id=76 x=48 y=37 width=7 height=8 xoffset=0 yoffset=3 xadvance=6 page=0
char id=77 x=56 y=37 width=10 height=8 xoffset=0 yoffset=3 xadvance=10 page=0
char id=78 x=67 y=37 width=8 height=8 xoffset=0 yoffset=3 xadvance=9 page=0
char id=79 x=76 y=37 width=9 height=8 xoffset=0 yoffset=3 xadvance=9 page=0
char id=80 x=1 y=46 width=8 height=8 xoffset=0 yoffset=3 xadvance=8 page=0
char id=81 x=10 y=46 width=9 height=10 xoffset=0 yoffset=3 xadvance=9 page=0
char id=82 x=20 y=46 width=8 height=8 xoffset=0 yoffset=3 xadvance=8 page=0
char id=83 x=29 y=46 width=7 height=8 xoffset=0 yoffset=3 xadvance=7 page=0
char id=84 x=37 y=46 width=7 height=8 xoffset=0 yoffset=3 xadvance=7 page=0
char id=85 x=45 y=46 width=8 height=8 xoffset=0 yoffset=3 xadvance=8 page=0
char id=86 x=54 y=46 width=10 height=8 xoffset=-1 yoffset=3 xadvance=8 page=0
char id=87 x=65 y=46 width=13 height=8 xoffset=0 yoffset=3 xadvance=12 page=0
char id=88 x=79 y=46 width=8 height=8 xoffset=0 yoffset=3 xadvance=8 page=0
char id=89 x=1 y=59 width=9 height=8 xoffset=-1 yoffset=3 xadvance=7 page=0
char id=90 x=11 y=59 width=7 height=8 xoffset=0 yoffset=3 xadvance=7 page=0
char id=91 x=19 y=59 width=4 height=10 xoffset=0 yoffset=3 xadvance=4 page=0
char id=92 x=24 y=57 width=6 height=11 xoffset=-1 yoffset=1 xadvance=4 page=0
char id=93 x=31 y=59 width=4 height=10 xoffset=0 yoffset=3 xadvance=4 page=0
char id=94 x=36 y=60 width=6 height=5 xoffset=0 yoffset=4 xadvance=6 page=0
char id=95 x=43 y=66 width=6 height=3 xoffset=0 yoffset=10 xadvance=5 page=0
char id=96 x=50 y=58 width=5 height=2 xoffset=0 yoffset=2 xadvance=6 page=0
char id=97 x=56 y=61 width=6 height=6 xoffset=0 yoffset=5 xadvance=7 page=0
char id=98 x=63 y=59 width=8 height=8 xoffset=0 yoffset=3 xadvance=7 page=0
char id=99 x=72 y=61 width=7 height=6 xoffset=0 yoffset=5 xadvance=6 page=0
char id=100 x=80 y=59 width=7 height=8 xoffset=0 yoffset=3 xadvance=7 page=0
char id=101 x=1 y=72 width=7 height=6 xoffset=0 yoffset=5 xadvance=7 page=0
char id=102 x=9 y=70 width=5 height=8 xoffset=0 yoffset=3 xadvance=4 page=0
char id=103 x=15 y=72 width=7 height=8 xoffset=0 yoffset=5 xadvance=7 page=0
char id=104 x=23 y=70 width=7 height=8 xoffset=0 yoffset=3 xadvance=7 page=0
char id=105 x=31 y=70 width=3 height=8 xoffset=0 yoffset=3 xadvance=3 page=0
char id=106 x=35 y=70 width=4 height=10 xoffset=-1 yoffset=3 xadvance=3 page=0
char id=107 x=40 y=70 width=8 height=8 xoffset=0 yoffset=3 xadvance=7 page=0
char id=108 x=49 y=70 width=3 height=8 xoffset=0 yoffset=3 xadvance=3 page=0
char id=109 x=53 y=72 width=11 height=6 xoffset=0 yoffset=5 xadvance=11 page=0
char id=110 x=65 y=72 width=7 height=6 xoffset=0 yoffset=5 xadvance=7 page=0
char id=111 x=73 y=72 width=7 height=6 xoffset=0 yoffset=5 xadvance=7 page=0
char id=112 x=81 y=72 width=8 height=8 xoffset=0 yoffset=5 xadvance=7 page=0
char id=113 x=1 y=83 width=7 height=8 xoffset=0 yoffset=5 xadvance=7 page=0
char id=114 x=9 y=83 width=5 height=6 xoffset=0 yoffset=5 xadvance=5 page=0
char id=115 x=15 y=83 width=6 height=6 xoffset=0 yoffset=5 xadvance=6 page=0
char id=116 x=22 y=81 width=5 height=8 xoffset=0 yoffset=3 xadvance=5 page=0
char id=117 x=28 y=83 width=7 height=6 xoffset=0 yoffset=5 xadvance=7 page=0
char id=118 x=36 y=83 width=8 height=6 xoffset=-1 yoffset=5 xadvance=6 page=0
char id=119 x=45 y=83 width=10 height=6 xoffset=0 yoffset=5 xadvance=10 page=0
char id=120 x=56 y=83 width=7 height=6 xoffset=0 yoffset=5 xadvance=6 page=0
char id=121 x=64 y=83 width=8 height=8 xoffset=-1 yoffset=5 xadvance=6 page=0
char id=122 x=73 y=83 width=6 height=6 xoffset=0 yoffset=5 xadvance=6 page=0
char id=123 x=80 y=81 width=5 height=10 xoffset=0 yoffset=3 xadvance=4 page=0
char id=124 x=86 y=81 width=3 height=10 xoffset=0 yoffset=3 xadvance=3 page=0
char id=125 x=1 y=92 width=4 height=10 xoffset=0 yoffset=3 xadvance=4 page=0
char id=126 x=6 y=94 width=6 height=4 xoffset=0 yoffset=5 xadvance=6 page=0
